{
    "title": {
        "en": "Experiences",
        "fr": "Expériences",
        "de": "Erfahrungen"
    },
    "languages": {
        "en": "Languages",
        "fr": "Langues",
        "de": "Sprachen"
    },
    "work_eurokey": {
        "introduction": {
            "en": "Fullstack developer for 9 months at the company <a href=\"http://www.eurokey.de/index.php?id=1\">Eurokey</a> in Saarbrücken in 2019",
            "fr": "Dévelopeur fullstack durant 9 mois à l'entreprise <a href=\"http://www.eurokey.de/index.php?id=1\">Eurokey</a> à Sarrebruck en 2019",
            "de": "9 Monate lang Fullstack-Entwickler bei der Firma <a href=\"http://www.eurokey.de/index.php?id=1\">Eurokey</a> in Saarbrücken in 2019"
        },
        "complement": {
            "en": "My task was to continue the development of an application for the developers of the company allowing them to more easily manage the creation of commercialized applications",
            "fr": "Ma tâche consistait à continuer le développement d'une application destinée aux développeurs de l'entreprise leur permettant de gérer plus aisément la création des applications commercialisées",
            "de": "Meine Aufgabe war es, die Erstellung einer App für die Entwickler des Unternehmens fortzusetzen, die es ihnen ermöglicht, die Erstellung kommerzialisierter Apps einfacher zu verwalten"     
        }
    }, 
    "internship_hotcity": {
        "en": "Internship in the company <a href=\"https://www.hotcity.lu/fr/\">Hotcity S.A</a> in Luxembourg (1 months in 2018) where I designed mobile application interfaces in addition to doing <i>web integration</i> and PHP development",
        "fr": "Stage au sein de l'entreprise de développement mobile <a href=\"https://www.hotcity.lu/fr/\">Hotcity S.A</a> au Luxembourg (1 mois en 2018) où j'ai designé des interfaces d'applications mobiles en plus de faire de <i>l'intégration web</i> et du développement PHP",
        "de": "Praktikum in der Firma <a href=\"https://www.hotcity.lu/fr/\">Hotcity S.A</a> in Luxemburg (1 Monat im 2018), in welchem ich zusätzlich zur <i>Web-Integration</i> und PHP-Entwicklung beigetragen habe Empfehlungsschreiben"
    },
     "letter_of_recommendation": {
        "en": "Letter of recommendation",
        "fr": "Lettre de recommandation",
        "de": "Empfehlungsschreiben"
    },
    "hackaton_lux": {
        "en": "Participation in the \"<i>Design and Coding HACKATHON to Benefit Society!</i>\" organized by the University of Luxembourg",
        "fr": "Participation au \"<i>Design and Coding HACKATHON to Benefit Society!</i>\" organisé par l'université du Luxembourg",
        "de": "Teilnahme an der von der Universität Luxemburg organisierten \"<i>Design and Coding HACKATHON to Benefit Society!</i>\""
    },
    "battledev": {
        "en": "Participation in the 12th season of <i>BattleDev</i> with the PHP language",
        "fr": "Participation à la 12ème saison de <i>BattleDev</i> avec le language PHP",
        "de": "Teilnahme an der 12. Staffel von <i>BattleDev</i> mit der Sprache PHP"
    },
    "diva": {
        "en": "Appointment to the position of IT manager of the <a href=\"http://diva.dfhi-isfates.eu/\" target=\"_blank\">DIVA</a> in 2018, 2019 and 2020. The DFHI-ISFATES-Verein-Association is the student association of the ISFATES. I performed different tasks such as the <a href=\"http://diva.dfhi-isfates.eu/\" target=\"_blank\">refactoring of the official site</a> (new graphic charter and implementation of an administrator interface) as well as the creation of <i>posters</i> and <i>logos</i>",
        "fr": "Nomination au poste de responsable informatique de la <a href=\"http://diva.dfhi-isfates.eu/\" target=\"_blank\">DIVA</a> en 2018, 2019 et 2020. La DFHI-ISFATES-Verein-Association est l’association étudiante de l’ISFATES. J'y ai accompli différentes tâches telles que le <a href=\"http://diva.dfhi-isfates.eu/\" target=\"_blank\">refactoring du site officiel</a> (nouvelle charte graphique et mise en place d'une interface administrateur) ainsi que la création d'<i>affiches</i> et de <i>logos</i>",
        "de": "Ernennung zum IT-Manager der <a href=\"http://diva.dfhi-isfates.eu/\" target=\"_blank\">DIVA</a> in den Jahren 2018, 2019 und 2020. Der DFHI-ISFATES-Verein-Association ist die studentische Vereinigung der DFHI. Ich habe verschiedene Aufgaben wie das <a href=\"http://diva.dfhi-isfates.eu/\" target=\"_blank\">Refactoring der offiziellen Seite</a> (neue Grafikcharta und Implementierung einer Administratoroberfläche) sowie die Erstellung von <i>Postern</i> und <i>Logos</i> durchgeführt"
    },
    "cnrs": {
        "en": "Research work in the laboratories of the <i>CNRS</i> in Strasbourg as part of the TPE",
        "fr": "Travail de recherche dans les laboratoires du <i>CNRS</i> de Strasbourg dans le cadre des TPE",
        "de": "Forschungsarbeiten in den Labors des <i>CNRS</i> in Straßburg im Rahmen der TPE"
    },
    "tpe": {
        "en": "Participation in the <i>Trinational Congress of Science and Technology</i> with oral presentation (study project: Will carbon nanotubes revolutionize cancer screening?)",
        "fr": "Participation au <i>Congrès Trinational des Sciences et des Techniques</i> avec présentation orale (projet d’étude: Les nanotubes de carbone révolutionneront-ils le dépistage du cancer?)",
        "de": "Teilnahme am <i>Trinational Congress of Science and Technology</i> mit mündlicher Präsentation (Studienprojekt: Kohlenstoffnanoröhren - die Revolution für die Krebsfrüherkennung?)"
    },
    "ecpm": {
        "en": "Participation in the National Chemistry Olympiads at the <i>ECPM</i> in Strasbourg",
        "fr": "Participation aux Olympiades Nationales de Chimie à l’<i>ECPM</i> de Strasbourg",
        "de": "Teilnahme an den Nationalen Chemie-Olympiaden auf der <i>ECPM</i> in Straßburg"
    },
    "pirmasens": {
        "en": "Scientific research day with German students from the <i>Hochschule</i> in Pirmasens",
        "fr": "Journée de recherche scientifique avec des étudiants allemands de la <i>Hochschule</i> de Pirmasens",
        "de": "Wissenschaftlicher Forschungstag mit deutschen Studenten der <i>Hochschule</i> in Pirmasens"
    },
    "summer_camp": {
        "en": "Participation in numerous <i>holiday camps</i> in France and abroad (Greece, Sweden, Norway, Iceland, Malta, Canada) in semi-autonomy",
        "fr": "Participation à de nombreuses <i>colonies</i> de vacances en France et à l'étranger (Grèce, Suède, Norvège, Islande, Malte, Canada) en semi-autonomie",
        "de": "Teilnahme an zahlreichen <i>Ferienlagern</i> in Frankreich und im Ausland (Griechenland, Schweden, Norwegen, Island, Malta, Kanada) in der Teilautonomie."
    },
    "concert": {
        "en": "Representations of <i>concerts</i> as a guitarist",
        "fr": "Représentations de <i>concerts</i> en tant que guitariste",
        "de": "Darstellungen von <i>Konzerten</i> als Gitarrist"
    }
}
